{
    "DA Warner": {
        "2009": 118.97810218978103,
        "2010": 144.6153846153846,
        "2011": 115.30249110320285,
        "2012": 159.0062111801242,
        "2013": 123.12312312312312,
        "2014": 136.78756476683938,
        "2015": 152.7173913043478,
        "2016": 146.4594127806563,
        "2017": 139.0455531453362
    },
    "S Dhawan": {
        "2008": 110.3896103896104,
        "2009": 86.95652173913044,
        "2010": 106.11111111111111,
        "2011": 126.98412698412697,
        "2012": 127.00892857142858,
        "2013": 118.70229007633588,
        "2014": 113.55421686746988,
        "2015": 120.47781569965869,
        "2016": 114.3835616438356,
        "2017": 125.39267015706805
    },
    "MC Henriques": {
        "2009": 95,
        "2010": 220.00000000000003,
        "2013": 129.92125984251967,
        "2014": 64.28571428571429,
        "2015": 132.87037037037038,
        "2016": 112.34567901234568,
        "2017": 135.7843137254902
    },
    "Yuvraj Singh": {
        "2008": 156.54450261780104,
        "2009": 107.25552050473186,
        "2010": 125.72815533980584,
        "2011": 127.5092936802974,
        "2013": 123.3160621761658,
        "2014": 130.55555555555557,
        "2015": 115.34883720930233,
        "2016": 128.96174863387978,
        "2017": 133.6898395721925
    },
    "DJ Hooda": {
        "2015": 152.52525252525254,
        "2016": 115.19999999999999,
        "2017": 148.0769230769231
    },
    "BCJ Cutting": {
        "2014": 133.33333333333331,
        "2016": 175.67567567567568,
        "2017": 192.30769230769232
    },
    "CH Gayle": {
        "2009": 115.72327044025157,
        "2010": 148.2233502538071,
        "2011": 177.77777777777777,
        "2012": 155.29661016949152,
        "2013": 148.7603305785124,
        "2014": 104.25531914893618,
        "2015": 136.76880222841226,
        "2016": 142.76729559748426,
        "2017": 116.37426900584795
    },
    "Mandeep Singh": {
        "2010": 36.36363636363637,
        "2011": 111.90476190476191,
        "2012": 123.78223495702005,
        "2013": 114.03508771929825,
        "2014": 85.71428571428571,
        "2015": 153.921568627451,
        "2017": 106.21468926553672
    },
    "TM Head": {
        "2016": 128.57142857142858,
        "2017": 137.96296296296296
    },
    "KM Jadhav": {
        "2010": 126.66666666666666,
        "2011": 78.26086956521739,
        "2013": 119.68503937007875,
        "2014": 143.26923076923077,
        "2015": 132.16783216783216,
        "2016": 127.27272727272727,
        "2017": 138.3419689119171
    },
    "SR Watson": {
        "2008": 146.58385093167703,
        "2010": 158.1196581196581,
        "2011": 128.90625,
        "2012": 149.12280701754386,
        "2013": 138.1679389312977,
        "2014": 120,
        "2015": 128.51851851851853,
        "2016": 132.5925925925926,
        "2017": 88.60759493670885
    },
    "Sachin Baby": {
        "2013": 42.857142857142854,
        "2016": 145.1219512195122,
        "2017": 93.75
    },
    "STR Binny": {
        "2010": 160,
        "2011": 119.35483870967742,
        "2012": 128.57142857142858,
        "2013": 143.62745098039215,
        "2014": 100.81967213114753,
        "2015": 107.24637681159422,
        "2016": 153.65853658536585,
        "2017": 101.3157894736842
    },
    "S Aravind": {
        "2011": 130,
        "2012": 175,
        "2015": 0,
        "2017": 82.05128205128204
    },
    "YS Chahal": {
        "2014": 50,
        "2015": 100,
        "2017": 52
    },
    "TS Mills": {
        "2017": 80
    },
    "A Choudhary": {
        "2017": 100
    },
    "PA Patel": {
        "2008": 95.87301587301587,
        "2009": 108.3969465648855,
        "2010": 86.74698795180723,
        "2011": 106.87830687830689,
        "2012": 116.86746987951808,
        "2013": 112.64367816091954,
        "2014": 107.32984293193716,
        "2015": 132.94117647058823,
        "2016": 109.93788819875776,
        "2017": 128.6644951140065
    },
    "JC Buttler": {
        "2016": 134.92063492063494,
        "2017": 144.86486486486487
    },
    "RG Sharma": {
        "2008": 146.3768115942029,
        "2009": 112.07430340557276,
        "2010": 130.32258064516128,
        "2011": 122.36842105263158,
        "2012": 123.71428571428571,
        "2013": 129.63855421686748,
        "2014": 127.0358306188925,
        "2015": 142.18289085545723,
        "2016": 131.4516129032258,
        "2017": 120.21660649819495
    },
    "N Rana": {
        "2016": 133.33333333333331,
        "2017": 120.28985507246377
    },
    "AT Rayudu": {
        "2010": 137.984496124031,
        "2011": 111.26760563380283,
        "2012": 127.58620689655173,
        "2013": 112.7659574468085,
        "2014": 121.95945945945945,
        "2015": 144.1025641025641,
        "2016": 117.6056338028169,
        "2017": 113.9240506329114
    },
    "KH Pandya": {
        "2016": 186.61417322834646,
        "2017": 130.8108108108108
    },
    "KA Pollard": {
        "2010": 179.60526315789474,
        "2011": 103.54609929078013,
        "2012": 134.96932515337423,
        "2013": 144.82758620689654,
        "2014": 131.25,
        "2015": 155.1851851851852,
        "2016": 133.33333333333331,
        "2017": 134.47098976109214
    },
    "HH Pandya": {
        "2015": 164.70588235294116,
        "2016": 66.66666666666666,
        "2017": 146.19883040935673
    },
    "TG Southee": {
        "2014": 100,
        "2015": 144.44444444444443,
        "2016": 150,
        "2017": 300
    },
    "AM Rahane": {
        "2008": 21.052631578947366,
        "2009": 112.5,
        "2011": 121.21212121212122,
        "2012": 125,
        "2013": 103.38983050847457,
        "2014": 113.75838926174498,
        "2015": 127.65957446808511,
        "2016": 124.03100775193798,
        "2017": 116.51376146788989
    },
    "MA Agarwal": {
        "2011": 109.30232558139534,
        "2012": 137.19512195121953,
        "2013": 104.6875,
        "2014": 123.65591397849462,
        "2015": 113.90374331550801,
        "2016": 103.84615384615385,
        "2017": 78.57142857142857
    },
    "SPD Smith": {
        "2012": 133.08823529411765,
        "2013": 118.65671641791045,
        "2014": 132.17391304347825,
        "2015": 130.70175438596493,
        "2016": 146.73913043478262,
        "2017": 118.29573934837092
    },
    "BA Stokes": {
        "2017": 139.8230088495575
    },
    "MS Dhoni": {
        "2008": 129.7805642633229,
        "2009": 122.96296296296296,
        "2010": 133.48837209302326,
        "2011": 158.70445344129556,
        "2012": 126.14840989399295,
        "2013": 154.6979865771812,
        "2014": 143.7984496124031,
        "2015": 120.3883495145631,
        "2016": 129.0909090909091,
        "2017": 111.15384615384616
    },
    "JJ Roy": {
        "2017": 147.5
    },
    "BB McCullum": {
        "2008": 195.83333333333331,
        "2009": 115.3225806451613,
        "2010": 97.43589743589743,
        "2011": 122.26027397260273,
        "2012": 100.69686411149826,
        "2013": 85.71428571428571,
        "2014": 118.76832844574781,
        "2015": 148.80546075085323,
        "2016": 129.67032967032966,
        "2017": 141.1504424778761
    },
    "SK Raina": {
        "2008": 138.48684210526315,
        "2009": 136.47798742138363,
        "2010": 136.43410852713177,
        "2011": 130.7462686567164,
        "2012": 131.6417910447761,
        "2013": 148.1081081081081,
        "2014": 141.35135135135135,
        "2015": 117.24137931034481,
        "2016": 124.29906542056075,
        "2017": 143.04207119741102
    },
    "AJ Finch": {
        "2010": 100,
        "2011": 92.15686274509804,
        "2012": 105.76923076923077,
        "2013": 132.5581395348837,
        "2014": 115.29850746268657,
        "2015": 69.6969696969697,
        "2016": 126.36655948553054,
        "2017": 158.2010582010582
    },
    "KD Karthik": {
        "2008": 134.25925925925927,
        "2009": 128.57142857142858,
        "2010": 114.87603305785123,
        "2011": 125.33333333333334,
        "2012": 109.6774193548387,
        "2013": 120.85308056872037,
        "2014": 124.52107279693487,
        "2015": 117.5,
        "2016": 122.71062271062272,
        "2017": 135.20599250936328
    },
    "G Gambhir": {
        "2008": 135.53299492385787,
        "2009": 101.0600706713781,
        "2010": 124.2152466367713,
        "2011": 113.85542168674698,
        "2012": 137.52913752913753,
        "2013": 114.68926553672316,
        "2014": 111.29568106312293,
        "2015": 113.54166666666667,
        "2016": 118.16037735849056,
        "2017": 123.01980198019803
    },
    "CA Lynn": {
        "2012": 60,
        "2014": 111.53846153846155,
        "2016": 108.69565217391303,
        "2017": 169.54022988505747
    },
    "MK Tiwary": {
        "2008": 119.54022988505749,
        "2009": 69.23076923076923,
        "2010": 123.4375,
        "2011": 106.84523809523809,
        "2012": 103.58565737051792,
        "2013": 102.8169014084507,
        "2014": 123.57723577235772,
        "2015": 98.27586206896551,
        "2017": 134.02489626556016
    },
    "DT Christian": {
        "2011": 118.01242236024845,
        "2012": 118.85245901639345,
        "2013": 37.5,
        "2017": 154.90196078431373
    },
    "HM Amla": {
        "2016": 128.68852459016392,
        "2017": 142.3728813559322
    },
    "M Vohra": {
        "2013": 137.60683760683762,
        "2014": 132.78688524590163,
        "2015": 98.79518072289156,
        "2016": 118.38235294117648,
        "2017": 134.9112426035503
    },
    "WP Saha": {
        "2008": 133.61344537815125,
        "2009": 175.609756097561,
        "2010": 126.41509433962264,
        "2011": 101.49253731343283,
        "2012": 42.857142857142854,
        "2013": 122.80701754385966,
        "2014": 141.9607843137255,
        "2015": 121.46341463414633,
        "2016": 126.16822429906543,
        "2017": 121.24352331606218
    },
    "AR Patel": {
        "2014": 101.63934426229508,
        "2015": 113.8121546961326,
        "2016": 137.03703703703704,
        "2017": 132.94117647058823
    },
    "GJ Maxwell": {
        "2012": 54.54545454545454,
        "2013": 133.33333333333331,
        "2014": 176.9230769230769,
        "2015": 126.95652173913044,
        "2016": 138.75968992248062,
        "2017": 167.02702702702703
    },
    "DA Miller": {
        "2012": 128.94736842105263,
        "2013": 162.64591439688715,
        "2014": 145.27687296416937,
        "2015": 130.2919708029197,
        "2016": 115.8273381294964,
        "2017": 101.23456790123457
    },
    "Vishnu Vinod": {
        "2017": 72
    },
    "Iqbal Abdulla": {
        "2008": 50,
        "2010": 0,
        "2011": 125,
        "2012": 66.66666666666666,
        "2013": 57.14285714285714,
        "2015": 100,
        "2016": 137.03703703703704,
        "2017": 83.33333333333334
    },
    "P Negi": {
        "2012": 120,
        "2015": 150.64935064935065,
        "2016": 90.47619047619048,
        "2017": 127.43362831858407
    },
    "AP Tare": {
        "2010": 121.95121951219512,
        "2013": 146.42857142857142,
        "2014": 123.52941176470588,
        "2015": 77.77777777777779,
        "2016": 53.333333333333336,
        "2017": 75
    },
    "SW Billings": {
        "2016": 133.33333333333331,
        "2017": 130.18867924528303
    },
    "KK Nair": {
        "2013": 75,
        "2014": 139.24050632911394,
        "2015": 123.12925170068027,
        "2016": 117.4342105263158,
        "2017": 123.24561403508771
    },
    "SV Samson": {
        "2013": 115.08379888268156,
        "2014": 121.07142857142857,
        "2015": 122.89156626506023,
        "2016": 109.81132075471697,
        "2017": 139.7810218978102
    },
    "RR Pant": {
        "2016": 127.74193548387096,
        "2017": 160
    },
    "CH Morris": {
        "2013": 82.35294117647058,
        "2015": 161.70212765957444,
        "2016": 171.05263157894737,
        "2017": 159.375
    },
    "CR Brathwaite": {
        "2016": 207.50000000000003,
        "2017": 80
    },
    "PJ Cummins": {
        "2015": 0,
        "2017": 145.2830188679245
    },
    "A Mishra": {
        "2008": 88.09523809523809,
        "2009": 130,
        "2010": 72.22222222222221,
        "2011": 130.76923076923077,
        "2012": 76.19047619047619,
        "2013": 86.40776699029125,
        "2014": 57.14285714285714,
        "2015": 61.53846153846154,
        "2016": 28.57142857142857,
        "2017": 89.0909090909091
    },
    "S Nadeem": {
        "2011": 0,
        "2012": 0,
        "2013": 51.85185185185185,
        "2014": 35,
        "2015": 28.57142857142857,
        "2016": 20,
        "2017": 25
    },
    "Z Khan": {
        "2008": 79.06976744186046,
        "2009": 72.72727272727273,
        "2010": 184.6153846153846,
        "2011": 87.5,
        "2012": 70.58823529411765,
        "2014": 114.28571428571428,
        "2016": 46.15384615384615,
        "2017": 25
    },
    "DR Smith": {
        "2008": 109.75609756097562,
        "2009": 160.44776119402985,
        "2010": 88,
        "2012": 153.921568627451,
        "2013": 119.0883190883191,
        "2014": 133.1764705882353,
        "2015": 117.00879765395895,
        "2016": 143.36283185840708,
        "2017": 151.5923566878981
    },
    "DS Kulkarni": {
        "2008": 11.76470588235294,
        "2009": 50,
        "2011": 50,
        "2012": 200,
        "2014": 129.62962962962962,
        "2015": 33.33333333333333,
        "2016": 168.75,
        "2017": 0
    },
    "P Kumar": {
        "2008": 112.00000000000001,
        "2009": 141.30434782608697,
        "2010": 50,
        "2011": 81.81818181818183,
        "2012": 109.375,
        "2013": 114.6341463414634,
        "2014": 50,
        "2015": 68,
        "2016": 88.88888888888889,
        "2017": 87.5
    },
    "Basil Thampi": {
        "2017": 93.10344827586206
    },
    "RV Uthappa": {
        "2008": 109.96563573883162,
        "2009": 98.87005649717514,
        "2010": 166.96428571428572,
        "2011": 122.79069767441861,
        "2012": 113.4453781512605,
        "2013": 112.72727272727272,
        "2014": 136.08247422680412,
        "2015": 126.82926829268293,
        "2016": 131.33333333333331,
        "2017": 163.0252100840336
    },
    "MK Pandey": {
        "2008": 30,
        "2009": 140,
        "2010": 106.86695278969958,
        "2011": 105.5793991416309,
        "2012": 124.34782608695652,
        "2013": 97.84172661870504,
        "2014": 113.9275766016713,
        "2015": 120.32085561497325,
        "2016": 130.5263157894737,
        "2017": 126.11464968152866
    },
    "YK Pathan": {
        "2008": 171.93675889328063,
        "2009": 135.9375,
        "2010": 158.57142857142856,
        "2011": 138.04878048780486,
        "2012": 108.37988826815644,
        "2013": 134.41295546558706,
        "2014": 159.52380952380955,
        "2015": 128.39506172839506,
        "2016": 141.015625,
        "2017": 117.21311475409837
    },
    "SA Yadav": {
        "2012": 0,
        "2014": 133.33333333333331,
        "2015": 136.52173913043478,
        "2016": 122.97297297297298,
        "2017": 118.18181818181819
    },
    "CR Woakes": {
        "2017": 100
    },
    "SP Narine": {
        "2012": 112.5,
        "2013": 105,
        "2014": 66.66666666666666,
        "2015": 0,
        "2016": 50,
        "2017": 166.4179104477612
    },
    "Harbhajan Singh": {
        "2008": 176.47058823529412,
        "2009": 147.36842105263156,
        "2010": 164.0625,
        "2011": 139.1891891891892,
        "2012": 131.70731707317074,
        "2013": 141.46341463414635,
        "2014": 107.6923076923077,
        "2015": 144.44444444444443,
        "2016": 101.0989010989011,
        "2017": 93.75
    },
    "AB de Villiers": {
        "2008": 95,
        "2009": 129.52646239554318,
        "2010": 90.2439024390244,
        "2011": 125.80645161290323,
        "2012": 157.14285714285714,
        "2013": 165.04424778761063,
        "2014": 154.90196078431373,
        "2015": 169.86754966887418,
        "2016": 165.5421686746988,
        "2017": 124.70588235294117
    },
    "CJ Anderson": {
        "2014": 142.4731182795699,
        "2015": 116.3265306122449,
        "2017": 110.07751937984496
    },
    "F du Plessis": {
        "2012": 128.38709677419357,
        "2014": 126.25,
        "2015": 119.87381703470032,
        "2016": 121.89349112426035,
        "2017": 116.66666666666667
    },
    "RA Tripathi": {
        "2017": 141.24087591240877
    },
    "R Bhatia": {
        "2008": 121.42857142857142,
        "2009": 44.44444444444444,
        "2010": 141.1764705882353,
        "2011": 108.69565217391303,
        "2012": 116.66666666666667,
        "2013": 122.22222222222223,
        "2014": 121.81818181818183,
        "2015": 0,
        "2016": 170,
        "2017": 93.75
    },
    "DL Chahar": {
        "2017": 280
    },
    "A Zampa": {
        "2016": 0,
        "2017": 83.33333333333334
    },
    "AB Dinda": {
        "2008": 50,
        "2009": 66.66666666666666,
        "2010": 0,
        "2011": 0,
        "2012": 40,
        "2013": 81.81818181818183,
        "2014": 30.76923076923077,
        "2017": 100
    },
    "Imran Tahir": {
        "2014": 80,
        "2015": 83.33333333333334,
        "2016": 71.42857142857143,
        "2017": 0
    },
    "NV Ojha": {
        "2009": 115.86206896551725,
        "2010": 128.2312925170068,
        "2011": 94.67455621301775,
        "2012": 110.86956521739131,
        "2013": 90,
        "2014": 136.47058823529412,
        "2015": 108.73015873015872,
        "2016": 95.77464788732394,
        "2017": 114.4927536231884
    },
    "V Shankar": {
        "2017": 131.57894736842107
    },
    "Rashid Khan": {
        "2017": 125
    },
    "B Kumar": {
        "2011": 100,
        "2012": 97.5609756097561,
        "2013": 72.22222222222221,
        "2014": 25,
        "2015": 170,
        "2016": 153.57142857142858,
        "2017": 100
    },
    "MP Stoinis": {
        "2016": 131.53153153153156,
        "2017": 70.83333333333334
    },
    "MM Sharma": {
        "2013": 0,
        "2014": 33.33333333333333,
        "2015": 155.55555555555557,
        "2016": 118.5185185185185,
        "2017": 100
    },
    "VR Aaron": {
        "2011": 0,
        "2012": 33.33333333333333,
        "2014": 102.94117647058823,
        "2015": 200,
        "2017": 30
    },
    "V Kohli": {
        "2008": 98.21428571428571,
        "2009": 109.33333333333333,
        "2010": 142.12962962962962,
        "2011": 117.75898520084567,
        "2012": 109.30930930930931,
        "2013": 135.66878980891718,
        "2014": 119.26910299003322,
        "2015": 127.84810126582278,
        "2016": 148.54961832061068,
        "2017": 120.3125
    },
    "MJ McClenaghan": {
        "2015": 216.66666666666666,
        "2016": 147.82608695652172,
        "2017": 106.66666666666667
    },
    "Ankit Sharma": {
        "2012": 138.46153846153845,
        "2014": 109.6774193548387,
        "2015": 116.66666666666667,
        "2016": 100,
        "2017": 166.66666666666669
    },
    "SN Thakur": {
        "2015": 116.66666666666667,
        "2017": 0
    },
    "RD Chahar": {
        "2017": 200
    },
    "LH Ferguson": {},
    "C de Grandhomme": {
        "2017": 138.46153846153845
    },
    "Bipul Sharma": {
        "2010": 128.57142857142858,
        "2011": 127.77777777777777,
        "2012": 153.19148936170214,
        "2015": 50,
        "2016": 204,
        "2017": 129.16666666666669
    },
    "SS Iyer": {
        "2015": 121.94444444444446,
        "2016": 65.21739130434783,
        "2017": 136.29032258064515
    },
    "EJG Morgan": {
        "2010": 112.90322580645163,
        "2011": 111.3821138211382,
        "2013": 122.8,
        "2015": 121.42857142857142,
        "2016": 117.14285714285715,
        "2017": 106.55737704918033
    },
    "KC Cariappa": {
        "2016": 118.18181818181819,
        "2017": 16.666666666666664
    },
    "Sandeep Sharma": {
        "2013": 0,
        "2014": 40,
        "2015": 64.28571428571429,
        "2016": 88.88888888888889,
        "2017": 100
    },
    "Ishan Kishan": {
        "2016": 102.4390243902439,
        "2017": 130.0469483568075
    },
    "JD Unadkat": {
        "2013": 100,
        "2014": 16.666666666666664,
        "2017": 50
    },
    "AF Milne": {
        "2017": 54.54545454545454
    },
    "S Badree": {
        "2017": 54.166666666666664
    },
    "AD Mathews": {
        "2009": 114.28571428571428,
        "2010": 118.27411167512692,
        "2012": 115.45454545454545,
        "2013": 121.98581560283688,
        "2015": 132.11009174311928,
        "2017": 114.81481481481481
    },
    "Mohammed Shami": {
        "2013": 50,
        "2014": 37.5,
        "2016": 50,
        "2017": 156.52173913043478
    },
    "Mohammad Nabi": {
        "2017": 100
    },
    "I Sharma": {
        "2008": 100,
        "2009": 123.07692307692308,
        "2010": 35.294117647058826,
        "2011": 80,
        "2017": 58.333333333333336
    },
    "RA Jadeja": {
        "2008": 125,
        "2009": 106.8840579710145,
        "2011": 120.94017094017093,
        "2012": 124.83660130718954,
        "2013": 144.6043165467626,
        "2014": 129.20353982300884,
        "2015": 103.125,
        "2016": 101.05820105820106,
        "2017": 135.04273504273505
    },
    "AJ Tye": {
        "2017": 182.75862068965517
    },
    "KS Williamson": {
        "2015": 106.89655172413792,
        "2016": 98.4126984126984,
        "2017": 150.29585798816566
    },
    "SE Marsh": {
        "2008": 136.28318584070794,
        "2010": 125.64102564102564,
        "2011": 144.41260744985672,
        "2012": 116.66666666666667,
        "2013": 117.1875,
        "2014": 129.62962962962962,
        "2015": 143.07692307692307,
        "2016": 118.65671641791045,
        "2017": 134.01015228426397
    },
    "Shakib Al Hasan": {
        "2011": 126.08695652173914,
        "2012": 118.18181818181819,
        "2014": 143.125,
        "2015": 112.5,
        "2016": 105.55555555555556
    },
    "JP Faulkner": {
        "2012": 100,
        "2013": 100,
        "2014": 182.82828282828282,
        "2015": 124.13793103448276,
        "2016": 128.33333333333334,
        "2017": 86.4406779661017
    },
    "MG Johnson": {
        "2013": 105.40540540540539,
        "2014": 109.80392156862746,
        "2015": 81.57894736842105,
        "2016": 35.714285714285715,
        "2017": 100
    },
    "K Rabada": {
        "2017": 82.08955223880598
    },
    "AD Nath": {
        "2016": 74.07407407407408
    },
    "NM Coulter-Nile": {
        "2013": 150,
        "2015": 100,
        "2016": 64.28571428571429,
        "2017": 108.33333333333333
    },
    "Kuldeep Yadav": {
        "2017": 95.23809523809523
    },
    "UT Yadav": {
        "2010": 75,
        "2011": 16.666666666666664,
        "2012": 28.57142857142857,
        "2013": 97.43589743589743,
        "2014": 50,
        "2015": 181.25,
        "2016": 150,
        "2017": 83.33333333333334
    },
    "Washington Sundar": {
        "2017": 63.63636363636363
    },
    "KV Sharma": {
        "2009": 33.33333333333333,
        "2013": 95.50561797752809,
        "2014": 140,
        "2015": 119.54022988505749,
        "2016": 105.88235294117648,
        "2017": 114.6341463414634
    },
    "DM Bravo": {
        "2017": 150
    },
    "AR Bawne": {
        "2017": 100
    },
    "SP Jackson": {
        "2017": 123.33333333333334
    },
    "MJ Guptill": {
        "2016": 103.63636363636364,
        "2017": 151.72413793103448
    },
    "Anureet Singh": {
        "2015": 58.06451612903226,
        "2017": 127.27272727272727
    },
    "IK Pathan": {
        "2008": 109.16666666666666,
        "2009": 119.51219512195121,
        "2010": 146.80851063829786,
        "2011": 102.73972602739727,
        "2012": 132.33082706766916,
        "2013": 96.22641509433963,
        "2014": 94.82758620689656,
        "2016": 78.57142857142857,
        "2017": 50
    },
    "Ankit Soni": {
        "2017": 75
    },
    "JJ Bumrah": {
        "2014": 25,
        "2016": 72.72727272727273,
        "2017": 145.45454545454547
    },
    "SL Malinga": {
        "2009": 0,
        "2010": 100,
        "2011": 88.88888888888889,
        "2012": 100,
        "2013": 47.368421052631575,
        "2014": 50,
        "2015": 54.54545454545454,
        "2017": 350
    },
    "PJ Sangwan": {
        "2008": 40,
        "2009": 60,
        "2010": 66.66666666666666,
        "2013": 200,
        "2017": 33.33333333333333
    },
    "S Kaul": {
        "2013": 77.77777777777779,
        "2014": 100,
        "2017": 0
    },
    "LMP Simmons": {
        "2014": 131.77257525083613,
        "2015": 118.68131868131869,
        "2016": 100,
        "2017": 119.1304347826087
    },
    "MN Samuels": {
        "2012": 100,
        "2013": 44.44444444444444,
        "2017": 93.54838709677419
    },
    "Swapnil Singh": {
        "2016": 0,
        "2017": 55.55555555555556
    },
    "R Tewatia": {
        "2014": 123.07692307692308,
        "2017": 190
    },
    "MM Patel": {
        "2008": 0,
        "2009": 126.92307692307692,
        "2010": 80,
        "2011": 0,
        "2012": 28.57142857142857
    },
    "SS Tiwary": {
        "2008": 130,
        "2009": 108.33333333333333,
        "2010": 131.34796238244516,
        "2011": 95.40816326530613,
        "2012": 110.40462427745665,
        "2013": 96.46017699115043,
        "2015": 131.32530120481925,
        "2016": 114.09395973154362,
        "2017": 115.55555555555554
    },
    "TA Boult": {
        "2017": 42.857142857142854
    },
    "CJ Jordan": {
        "2016": 75
    },
    "IR Jaggi": {
        "2011": 73.68421052631578,
        "2012": 68.18181818181817,
        "2017": 84.61538461538461
    },
    "PP Chawla": {
        "2008": 147.54098360655738,
        "2009": 79.48717948717949,
        "2010": 98.4126984126984,
        "2011": 87.27272727272727,
        "2012": 120.45454545454545,
        "2013": 106.66666666666667,
        "2014": 155,
        "2015": 110.20408163265304,
        "2016": 103.84615384615385,
        "2017": 20
    },
    "AS Rajpoot": {
        "2013": 33.33333333333333,
        "2017": 0
    },
    "SC Ganguly": {
        "2008": 108.04953560371517,
        "2009": 88.73239436619718,
        "2010": 112.04545454545453,
        "2011": 81.9672131147541,
        "2012": 93.05555555555556
    },
    "RT Ponting": {
        "2008": 75,
        "2013": 68.42105263157895
    },
    "DJ Hussey": {
        "2008": 119.92481203007519,
        "2009": 160.65573770491804,
        "2010": 105.61797752808988,
        "2011": 98.46153846153847,
        "2012": 126.51757188498402,
        "2013": 111.90476190476191,
        "2014": 120.83333333333333
    },
    "Mohammad Hafeez": {
        "2008": 77.10843373493977
    },
    "R Dravid": {
        "2008": 124.16107382550337,
        "2009": 113.38912133891212,
        "2010": 126.10837438423646,
        "2011": 107.18749999999999,
        "2012": 108.96226415094338,
        "2013": 108.77598152424943
    },
    "W Jaffer": {
        "2008": 105.50458715596329,
        "2009": 78.94736842105263
    },
    "JH Kallis": {
        "2008": 105.88235294117648,
        "2009": 103.43839541547277,
        "2010": 110.63829787234043,
        "2011": 109.84455958549222,
        "2012": 104.07124681933841,
        "2013": 95.10703363914374,
        "2014": 115.2671755725191
    },
    "CL White": {
        "2008": 109.61538461538463,
        "2010": 145.45454545454547,
        "2011": 95.41284403669725,
        "2012": 146.48318042813455,
        "2013": 112.99999999999999
    },
    "MV Boucher": {
        "2008": 125,
        "2009": 123.96694214876034,
        "2010": 130,
        "2011": 100
    },
    "B Akhil": {
        "2008": 148.38709677419354,
        "2009": 106.25,
        "2011": 144.44444444444443
    },
    "AA Noffke": {
        "2008": 81.81818181818183
    },
    "SB Joshi": {
        "2008": 33.33333333333333
    },
    "ML Hayden": {
        "2008": 141.04477611940297,
        "2009": 139.85330073349633,
        "2010": 117.28813559322033
    },
    "MEK Hussey": {
        "2008": 168.68686868686868,
        "2010": 84.0909090909091,
        "2011": 116.31205673758865,
        "2012": 108.29875518672199,
        "2013": 126.37931034482759,
        "2014": 111.76470588235294,
        "2015": 105.47945205479452
    },
    "JDP Oram": {
        "2008": 150,
        "2009": 93.61702127659575,
        "2011": 0
    },
    "S Badrinath": {
        "2008": 140.14598540145985,
        "2009": 106.62650602409639,
        "2010": 114.83870967741936,
        "2011": 123.75,
        "2012": 104.25531914893618,
        "2013": 100.8130081300813
    },
    "K Goel": {
        "2008": 92.3076923076923,
        "2009": 88.57142857142857,
        "2010": 90
    },
    "JR Hopes": {
        "2008": 146.35761589403972,
        "2011": 120.98765432098766
    },
    "KC Sangakkara": {
        "2008": 154.85436893203882,
        "2009": 100,
        "2010": 137.30769230769232,
        "2011": 120.13422818791946,
        "2012": 105.26315789473684,
        "2013": 87.59124087591242
    },
    "SM Katich": {
        "2008": 133.80281690140845,
        "2009": 121.84873949579831
    },
    "T Kohli": {
        "2008": 66.66666666666666,
        "2009": 25
    },
    "M Kaif": {
        "2008": 100.57142857142858,
        "2010": 90.32258064516128,
        "2011": 117.14285714285715,
        "2012": 87.5
    },
    "DS Lehmann": {
        "2008": 94.44444444444444
    },
    "M Rawat": {
        "2008": 86.8421052631579,
        "2009": 80,
        "2013": 45.45454545454545
    },
    "D Salunkhe": {
        "2008": 126.08695652173914
    },
    "SK Warne": {
        "2008": 118.64406779661016,
        "2009": 91.52542372881356,
        "2010": 47.61904761904761,
        "2011": 50
    },
    "SK Trivedi": {
        "2008": 45.45454545454545,
        "2009": 47.368421052631575,
        "2010": 133.33333333333331,
        "2011": 0,
        "2012": 83.33333333333334,
        "2013": 42.857142857142854
    },
    "V Sehwag": {
        "2008": 176.3157894736842,
        "2009": 135.6164383561644,
        "2010": 156.8281938325991,
        "2011": 171.65991902834008,
        "2012": 156.15141955835963,
        "2013": 120.9016393442623,
        "2014": 136.22754491017963,
        "2015": 111.23595505617978
    },
    "L Ronchi": {
        "2008": 103.03030303030303,
        "2009": 0
    },
    "ST Jayasuriya": {
        "2008": 154.5180722891566,
        "2009": 107.8048780487805,
        "2010": 94.28571428571428
    },
    "DJ Thornely": {
        "2008": 73.58490566037736
    },
    "PR Shah": {
        "2008": 91.8918918918919,
        "2009": 98.14814814814815,
        "2011": 100
    },
    "AM Nayar": {
        "2008": 146.09929078014184,
        "2009": 124.51612903225806,
        "2010": 113.72549019607843,
        "2011": 91.04477611940298,
        "2012": 91.83673469387756,
        "2013": 89.1891891891892,
        "2014": 86
    },
    "SM Pollock": {
        "2008": 124.34782608695652
    },
    "S Chanderpaul": {
        "2008": 78.125
    },
    "LRPL Taylor": {
        "2008": 176.19047619047618,
        "2009": 132.70142180094786,
        "2010": 114.28571428571428,
        "2011": 114.55696202531647,
        "2012": 111.2994350282486,
        "2013": 81.81818181818183,
        "2014": 95.16129032258065
    },
    "AC Gilchrist": {
        "2008": 133.0275229357798,
        "2009": 146.88427299703264,
        "2010": 144.5,
        "2011": 123.94822006472492,
        "2012": 117.00680272108843,
        "2013": 125.64102564102564
    },
    "Y Venugopal Rao": {
        "2008": 133.33333333333331,
        "2009": 105.08474576271188,
        "2010": 77.27272727272727,
        "2011": 115.06849315068493,
        "2012": 102.32558139534885,
        "2014": 109.23076923076923
    },
    "VVS Laxman": {
        "2008": 116.54135338345866,
        "2009": 57.57575757575758,
        "2010": 103.2258064516129,
        "2011": 104.76190476190477
    },
    "A Symonds": {
        "2008": 146.36363636363637,
        "2009": 145.61403508771932,
        "2010": 120.50561797752808,
        "2011": 94.4055944055944
    },
    "SB Styris": {
        "2008": 91.05691056910568,
        "2009": 175,
        "2011": 250
    },
    "AS Yadav": {
        "2008": 123.07692307692308
    },
    "SB Bangar": {
        "2008": 95.83333333333334,
        "2009": 22.22222222222222
    },
    "WPUJC Vaas": {
        "2008": 123.52941176470588,
        "2009": 142.85714285714286,
        "2010": 88.23529411764706
    },
    "RP Singh": {
        "2008": 108.33333333333333,
        "2009": 47.05882352941176,
        "2010": 45,
        "2011": 50,
        "2012": 50
    },
    "LR Shukla": {
        "2008": 128.57142857142858,
        "2009": 96.51162790697676,
        "2010": 133.33333333333331,
        "2011": 140,
        "2012": 131.57894736842107,
        "2013": 23.076923076923077,
        "2014": 81.57894736842105
    },
    "DPMD Jayawardene": {
        "2008": 130.65693430656935,
        "2009": 127.32558139534885,
        "2010": 142.62820512820514,
        "2011": 109.9264705882353,
        "2012": 109.47712418300655,
        "2013": 102.79503105590062
    },
    "S Sohal": {
        "2008": 57.14285714285714,
        "2009": 112.74509803921569,
        "2011": 123.88059701492537
    },
    "B Lee": {
        "2008": 130.76923076923077,
        "2009": 80,
        "2010": 100,
        "2011": 55.55555555555556,
        "2012": 200,
        "2013": 175
    },
    "WA Mota": {
        "2008": 92.5925925925926,
        "2009": 62.5
    },
    "Kamran Akmal": {
        "2008": 166.23376623376623
    },
    "Shahid Afridi": {
        "2008": 180
    },
    "DJ Bravo": {
        "2008": 130.14705882352942,
        "2009": 103.3175355450237,
        "2010": 115.09433962264151,
        "2011": 183.33333333333331,
        "2012": 136.90036900369006,
        "2013": 108.03571428571428,
        "2014": 266.66666666666663,
        "2015": 129.13907284768212,
        "2016": 112.5
    },
    "MA Khote": {
        "2008": 104.76190476190477
    },
    "A Nehra": {
        "2008": 25,
        "2009": 100,
        "2010": 114.99999999999999,
        "2012": 84.61538461538461,
        "2013": 12.5,
        "2015": 14.285714285714285,
        "2016": 100
    },
    "GC Smith": {
        "2008": 117.9144385026738,
        "2009": 95.4954954954955,
        "2010": 110.00000000000001,
        "2011": 77.77777777777779
    },
    "Pankaj Singh": {
        "2008": 57.14285714285714,
        "2009": 50,
        "2010": 50
    },
    "RR Sarwan": {
        "2008": 94.8051948051948
    },
    "S Sreesanth": {
        "2008": 0,
        "2009": 26.31578947368421,
        "2010": 122.72727272727273,
        "2011": 11.11111111111111,
        "2013": 25
    },
    "VRV Singh": {
        "2008": 0
    },
    "R Vinay Kumar": {
        "2008": 88.88888888888889,
        "2009": 106.81818181818181,
        "2010": 77.14285714285715,
        "2011": 104.16666666666667,
        "2012": 104.61538461538463,
        "2013": 159.0909090909091,
        "2014": 57.14285714285714,
        "2015": 0,
        "2016": 108.33333333333333
    },
    "AB Agarkar": {
        "2008": 104.16666666666667,
        "2009": 113.79310344827587,
        "2010": 133.33333333333331,
        "2011": 100,
        "2013": 75
    },
    "M Kartik": {
        "2008": 107.40740740740742,
        "2009": 105,
        "2010": 100,
        "2011": 80,
        "2012": 123.80952380952381,
        "2013": 66.66666666666666
    },
    "Shoaib Malik": {
        "2008": 100
    },
    "MF Maharoof": {
        "2008": 158.97435897435898,
        "2009": 100,
        "2010": 129.16666666666669
    },
    "VY Mahesh": {
        "2008": 48.148148148148145
    },
    "TM Srivastava": {
        "2008": 88.88888888888889,
        "2009": 0
    },
    "B Chipli": {
        "2008": 65.51724137931035,
        "2011": 120.34883720930232,
        "2012": 105.71428571428572,
        "2013": 84.21052631578947
    },
    "DW Steyn": {
        "2008": 25,
        "2009": 0,
        "2010": 76.47058823529412,
        "2011": 97.2972972972973,
        "2012": 90.47619047619048,
        "2013": 143.24324324324326,
        "2014": 84.61538461538461,
        "2015": 153.84615384615387,
        "2016": 50
    },
    "DB Das": {
        "2008": 109.57446808510637,
        "2012": 131.25,
        "2013": 98.68421052631578
    },
    "HH Gibbs": {
        "2008": 105.69620253164558,
        "2009": 107.84883720930232,
        "2010": 109.87654320987654,
        "2012": 89.01098901098901
    },
    "DNT Zoysa": {
        "2008": 125
    },
    "D Kalyankrishna": {
        "2008": 42.857142857142854
    },
    "SA Asnodkar": {
        "2008": 127.91666666666666,
        "2009": 100,
        "2010": 125,
        "2011": 100
    },
    "Sohail Tanvir": {
        "2008": 116.66666666666667
    },
    "Salman Butt": {
        "2008": 111.69590643274854
    },
    "BJ Hodge": {
        "2008": 70.58823529411765,
        "2009": 115.14195583596214,
        "2010": 104.21052631578947,
        "2011": 116.3265306122449,
        "2012": 136.11111111111111,
        "2013": 130.80357142857142,
        "2014": 136.48648648648648
    },
    "Umar Gul": {
        "2008": 211.11111111111111
    },
    "SP Fleming": {
        "2008": 115.29411764705881
    },
    "S Vidyut": {
        "2008": 123.6842105263158
    },
    "JA Morkel": {
        "2008": 141.91616766467067,
        "2009": 132.87671232876713,
        "2010": 147.40740740740742,
        "2011": 127.77777777777777,
        "2012": 150.70422535211267,
        "2013": 124.32432432432432,
        "2014": 109.75609756097562,
        "2015": 122.85714285714286,
        "2016": 177.77777777777777
    },
    "LPC Silva": {
        "2008": 153.84615384615387
    },
    "DB Ravi Teja": {
        "2008": 128.57142857142858,
        "2009": 91.54929577464789,
        "2011": 124.48979591836735,
        "2012": 100,
        "2013": 77.77777777777779
    },
    "Misbah-ul-Haq": {
        "2008": 144.44444444444443
    },
    "YV Takawale": {
        "2008": 102.94117647058823,
        "2009": 81.81818181818183,
        "2014": 113.04347826086956
    },
    "RR Raje": {
        "2008": 87.5,
        "2009": 133.33333333333331
    },
    "Mohammad Asif": {
        "2008": 60
    },
    "GD McGrath": {
        "2008": 100
    },
    "Joginder Sharma": {
        "2008": 160,
        "2009": 111.11111111111111,
        "2011": 0
    },
    "MS Gony": {
        "2008": 145.83333333333331,
        "2009": 185.71428571428572,
        "2010": 28.57142857142857,
        "2011": 0,
        "2012": 50,
        "2013": 166.66666666666669
    },
    "M Muralitharan": {
        "2008": 0,
        "2009": 100,
        "2010": 50,
        "2011": 62.5,
        "2012": 66.66666666666666
    },
    "M Ntini": {
        "2008": 61.111111111111114
    },
    "DT Patil": {
        "2008": 75
    },
    "A Kumble": {
        "2008": 81.25,
        "2009": 80,
        "2010": 50
    },
    "S Anirudha": {
        "2008": 14.285714285714285,
        "2010": 157.89473684210526,
        "2011": 106.41025641025641,
        "2012": 211.11111111111111,
        "2013": 0,
        "2014": 60
    },
    "CK Kapugedera": {
        "2008": 65.21739130434783
    },
    "A Chopra": {
        "2008": 77.77777777777779,
        "2009": 55.00000000000001
    },
    "T Taibu": {
        "2008": 115.99999999999999
    },
    "J Arunkumar": {
        "2008": 100
    },
    "PP Ojha": {
        "2008": 33.33333333333333,
        "2009": 14.285714285714285,
        "2010": 37.5,
        "2012": 28.57142857142857,
        "2013": 50,
        "2014": 50
    },
    "SP Goswami": {
        "2008": 95.29411764705881,
        "2009": 82.8125,
        "2010": 80,
        "2011": 93.54838709677419,
        "2012": 100
    },
    "SR Tendulkar": {
        "2008": 99.46808510638297,
        "2009": 115.55555555555554,
        "2010": 126.38036809815951,
        "2011": 108.21917808219179,
        "2012": 109.09090909090908,
        "2013": 118.10699588477367
    },
    "U Kaul": {},
    "TM Dilshan": {
        "2008": 132.05128205128204,
        "2009": 117.08683473389357,
        "2010": 80,
        "2011": 122.16216216216216,
        "2012": 104.01459854014598,
        "2013": 78.35051546391753
    },
    "AD Mascarenhas": {
        "2008": 114.28571428571428,
        "2009": 100,
        "2010": 109.09090909090908,
        "2012": 87.5,
        "2013": 100
    },
    "Niraj Patel": {
        "2008": 125.60975609756098,
        "2009": 43.90243902439025
    },
    "LA Pomersbach": {
        "2008": 152,
        "2009": 83.6734693877551,
        "2011": 124.39024390243902,
        "2013": 96.66666666666667
    },
    "Younis Khan": {
        "2008": 33.33333333333333
    },
    "PM Sarvesh Kumar": {
        "2008": 100
    },
    "DP Vijaykumar": {},
    "Shoaib Akhtar": {
        "2008": 28.57142857142857
    },
    "Abdur Razzak": {
        "2008": 0
    },
    "H Das": {
        "2008": 50
    },
    "SD Chitnis": {
        "2008": 177.77777777777777,
        "2009": 66.66666666666666,
        "2011": 100,
        "2012": 103.125
    },
    "CRD Fernando": {
        "2010": 100
    },
    "VS Yeligati": {
        "2008": 0
    },
    "L Balaji": {
        "2008": 0,
        "2009": 40,
        "2010": 90,
        "2011": 200,
        "2013": 90,
        "2014": 33.33333333333333
    },
    "A Mukund": {
        "2013": 86.36363636363636
    },
    "RR Powar": {
        "2008": 140,
        "2009": 104.54545454545455,
        "2010": 62.5,
        "2011": 84.61538461538461
    },
    "JP Duminy": {
        "2009": 111.41141141141142,
        "2010": 117.16417910447761,
        "2011": 116.47727272727273,
        "2012": 125.12820512820512,
        "2014": 131.83279742765274,
        "2015": 126.60550458715596,
        "2016": 121.656050955414
    },
    "A Flintoff": {
        "2009": 110.71428571428572
    },
    "T Thushara": {
        "2009": 28.57142857142857,
        "2010": 90.9090909090909
    },
    "JD Ryder": {
        "2009": 116.66666666666667,
        "2011": 145.273631840796,
        "2012": 118.5185185185185
    },
    "KP Pietersen": {
        "2009": 105.68181818181819,
        "2010": 148.42767295597483,
        "2012": 145.23809523809524,
        "2014": 123.01255230125523,
        "2016": 119.67213114754098
    },
    "T Henderson": {
        "2009": 73.33333333333333
    },
    "Kamran Khan": {
        "2009": 75
    },
    "RS Bopara": {
        "2009": 112.19512195121952,
        "2010": 111.21076233183858,
        "2015": 119.83471074380165
    },
    "R Bishnoi": {
        "2009": 118.75
    },
    "FH Edwards": {
        "2009": 100
    },
    "PC Valthaty": {
        "2009": 45.45454545454545,
        "2011": 131.90883190883193,
        "2012": 57.692307692307686,
        "2013": 35.294117647058826
    },
    "RJ Quiney": {
        "2009": 93.26923076923077
    },
    "AS Raut": {
        "2009": 121.875,
        "2010": 116.66666666666667,
        "2011": 101.69491525423729
    },
    "Yashpal Singh": {
        "2009": 71.21212121212122
    },
    "M Manhas": {
        "2009": 117.1875,
        "2010": 103.97350993377484,
        "2011": 89.0625,
        "2012": 121.21212121212122,
        "2013": 76.47058823529412,
        "2014": 134.6153846153846
    },
    "AA Bilakhia": {
        "2009": 80.72289156626506,
        "2010": 50
    },
    "AN Ghosh": {
        "2009": 100
    },
    "BAW Mendis": {
        "2010": 100,
        "2013": 50
    },
    "DL Vettori": {
        "2009": 106.4516129032258,
        "2010": 117.85714285714286,
        "2011": 76.66666666666667,
        "2012": 110.71428571428572
    },
    "MN van Wyk": {
        "2009": 123.88059701492537
    },
    "RE van der Merwe": {
        "2009": 122,
        "2010": 50,
        "2011": 87.5,
        "2013": 88
    },
    "TL Suman": {
        "2009": 122.91666666666667,
        "2010": 116.28787878787878,
        "2011": 122.64150943396226,
        "2012": 78.94736842105263,
        "2013": 89.65517241379311
    },
    "Shoaib Ahmed": {
        "2009": 20
    },
    "GR Napier": {
        "2009": 93.33333333333333
    },
    "KP Appanna": {
        "2010": 66.66666666666666
    },
    "LA Carseldine": {
        "2009": 112.85714285714286
    },
    "SM Harwood": {
        "2009": 69.23076923076923
    },
    "M Vijay": {
        "2009": 88.23529411764706,
        "2010": 150.1639344262295,
        "2011": 124.35530085959886,
        "2012": 123.07692307692308,
        "2013": 106.48464163822527,
        "2014": 105.0761421319797,
        "2015": 107.72532188841201,
        "2016": 121.44772117962465
    },
    "SB Jakati": {
        "2009": 133.33333333333331,
        "2012": 58.333333333333336,
        "2016": 50
    },
    "RJ Harris": {
        "2009": 117.64705882352942,
        "2010": 115.38461538461537,
        "2011": 79.48717948717949,
        "2012": 163.63636363636365,
        "2013": 40
    },
    "D du Preez": {
        "2009": 75
    },
    "M Morkel": {
        "2009": 100,
        "2010": 56.25,
        "2011": 160,
        "2012": 60,
        "2013": 190,
        "2014": 100,
        "2015": 133.33333333333331,
        "2016": 100
    },
    "J Botha": {
        "2009": 112.19512195121952,
        "2011": 114.99999999999999,
        "2012": 105.45454545454544,
        "2013": 82.6923076923077,
        "2015": 206.66666666666669
    },
    "C Nanda": {},
    "Mashrafe Mortaza": {
        "2009": 0
    },
    "A Singh": {
        "2009": 50,
        "2011": 25,
        "2012": 0
    },
    "GJ Bailey": {
        "2009": 115.38461538461537,
        "2010": 66.66666666666666,
        "2014": 135.26315789473685,
        "2015": 132.14285714285714,
        "2016": 84.84848484848484
    },
    "AB McDonald": {
        "2009": 66.66666666666666,
        "2010": 120.37037037037037,
        "2011": 114.28571428571428,
        "2012": 130.55555555555557,
        "2013": 0
    },
    "Y Nagar": {
        "2009": 90.47619047619048,
        "2010": 14.285714285714285,
        "2011": 102.77777777777777,
        "2012": 114.17910447761194
    },
    "SS Shaikh": {
        "2009": 100
    },
    "R Ashwin": {
        "2009": 57.14285714285714,
        "2010": 75,
        "2011": 33.33333333333333,
        "2012": 120,
        "2013": 70,
        "2014": 93.75,
        "2015": 152.94117647058823,
        "2016": 107.89473684210526
    },
    "Mohammad Ashraful": {
        "2009": 18.181818181818183
    },
    "CA Pujara": {
        "2010": 103.38983050847457,
        "2011": 106.25,
        "2012": 73.91304347826086,
        "2013": 92,
        "2014": 96.89922480620154
    },
    "OA Shah": {
        "2010": 121.05263157894737,
        "2011": 162.5,
        "2012": 126.39405204460968,
        "2013": 104.16666666666667
    },
    "Anirudh Singh": {
        "2010": 91.17647058823529
    },
    "Jaskaran Singh": {
        "2010": 80
    },
    "R Sathish": {
        "2010": 115.46391752577318,
        "2011": 71.42857142857143,
        "2013": 137.9746835443038,
        "2016": 100
    },
    "R McLaren": {
        "2010": 92.85714285714286,
        "2011": 89.10891089108911,
        "2013": 50
    },
    "AA Jhunjhunwala": {
        "2010": 107.01754385964912,
        "2011": 52.63157894736842,
        "2012": 88.88888888888889
    },
    "P Dogra": {
        "2010": 99.06542056074767,
        "2012": 60,
        "2013": 62.5
    },
    "A Uniyal": {
        "2010": 66.66666666666666
    },
    "MS Bisla": {
        "2010": 115.95744680851064,
        "2011": 80,
        "2012": 124.56140350877195,
        "2013": 102.8225806451613,
        "2014": 33.33333333333333,
        "2015": 123.33333333333334
    },
    "YA Abdulla": {},
    "JM Kemp": {
        "2010": 104.16666666666667
    },
    "S Tyagi": {
        "2010": 66.66666666666666
    },
    "RS Gavaskar": {
        "2010": 28.57142857142857
    },
    "SE Bond": {
        "2010": 0
    },
    "S Ladda": {
        "2010": 0
    },
    "DP Nannes": {
        "2010": 33.33333333333333
    },
    "MJ Lumb": {
        "2010": 142.56410256410257,
        "2011": 0
    },
    "DR Martyn": {
        "2010": 72
    },
    "S Narwal": {
        "2010": 116.66666666666667,
        "2013": 143.75
    },
    "AB Barath": {
        "2010": 97.61904761904762
    },
    "FY Fazal": {
        "2010": 103.14465408805032,
        "2011": 100
    },
    "AC Voges": {
        "2010": 124.64788732394365
    },
    "MD Mishra": {
        "2010": 112.16216216216218,
        "2011": 111.66666666666667,
        "2012": 100
    },
    "J Theron": {
        "2010": 40,
        "2012": 116.66666666666667,
        "2015": 100
    },
    "SJ Srivastava": {
        "2010": 100,
        "2011": 133.33333333333331
    },
    "R Sharma": {
        "2010": 108,
        "2011": 104.34782608695652,
        "2012": 18.181818181818183,
        "2013": 64.70588235294117
    },
    "SW Tait": {
        "2010": 91.66666666666666,
        "2011": 100,
        "2013": 33.33333333333333
    },
    "KB Arun Karthik": {
        "2010": 50,
        "2011": 87.5,
        "2013": 102.49999999999999
    },
    "KAJ Roach": {
        "2010": 75
    },
    "PD Collingwood": {
        "2010": 128.48101265822785
    },
    "CK Langeveldt": {
        "2011": 100
    },
    "VS Malik": {
        "2010": 150,
        "2014": 50
    },
    "A Mithun": {
        "2010": 166.66666666666669,
        "2011": 135,
        "2013": 100
    },
    "AP Dole": {
        "2010": 154.54545454545453
    },
    "AN Ahmed": {
        "2010": 57.14285714285714,
        "2011": 138.46153846153845,
        "2014": 400,
        "2015": 200
    },
    "RS Sodhi": {
        "2010": 0
    },
    "DE Bollinger": {
        "2010": 112.5,
        "2011": 0,
        "2012": 60
    },
    "S Sriram": {
        "2010": 86.66666666666667,
        "2011": 57.14285714285714
    },
    "B Sumanth": {
        "2010": 89.1891891891892
    },
    "C Madan": {
        "2010": 55.00000000000001
    },
    "AG Paunikar": {
        "2011": 81.66666666666667
    },
    "MR Marsh": {
        "2010": 93.33333333333333,
        "2011": 100,
        "2013": 128.44036697247708,
        "2016": 63.63636363636363
    },
    "Harmeet Singh": {
        "2012": 214.28571428571428,
        "2013": 75
    },
    "RV Gomez": {
        "2011": 90.19607843137256,
        "2013": 400
    },
    "AUK Pathan": {
        "2011": 170.58823529411765,
        "2012": 75
    },
    "UBT Chand": {
        "2011": 18.181818181818183,
        "2012": 102.85714285714285,
        "2013": 96.93251533742331,
        "2014": 20,
        "2015": 114.6067415730337,
        "2016": 0
    },
    "DJ Jacobs": {
        "2011": 102.22222222222221,
        "2012": 0
    },
    "Sunny Singh": {
        "2011": 130
    },
    "NJ Rimmington": {},
    "AL Menaria": {
        "2011": 114.64968152866241,
        "2012": 106.28019323671498,
        "2013": 50
    },
    "WD Parnell": {
        "2011": 90.2439024390244,
        "2012": 65.51724137931035,
        "2013": 71.42857142857143,
        "2014": 100
    },
    "JJ van der Wath": {
        "2011": 112.5
    },
    "R Ninan": {
        "2011": 40
    },
    "MS Wade": {
        "2011": 68.75
    },
    "TD Paine": {
        "2011": 35.714285714285715
    },
    "SB Wagh": {
        "2011": 0
    },
    "AC Thomas": {
        "2011": 33.33333333333333,
        "2012": 126.66666666666666
    },
    "JEC Franklin": {
        "2011": 135.44303797468353,
        "2012": 96.06986899563319
    },
    "DH Yagnik": {
        "2011": 54.54545454545454,
        "2012": 178.57142857142858,
        "2013": 126.26262626262626,
        "2014": 66.66666666666666
    },
    "S Randiv": {
        "2011": 66.66666666666666
    },
    "BJ Haddin": {
        "2011": 180
    },
    "NLTC Perera": {
        "2011": 82.14285714285714,
        "2012": 33.33333333333333,
        "2013": 135.83815028901734,
        "2015": 80,
        "2016": 154.63917525773198
    },
    "NL McCullum": {
        "2011": 118.18181818181819
    },
    "JE Taylor": {
        "2011": 100
    },
    "J Syed Mohammad": {
        "2011": 125,
        "2012": 400,
        "2013": 76.92307692307693
    },
    "RN ten Doeschate": {
        "2011": 141.33333333333334,
        "2012": 100,
        "2013": 134.92063492063494,
        "2014": 157.57575757575756,
        "2015": 135.55555555555557
    },
    "TR Birt": {
        "2011": 129.31034482758622
    },
    "AG Murtaza": {
        "2011": 25,
        "2012": 60,
        "2013": 125
    },
    "Harpreet Singh": {
        "2011": 68.42105263157895,
        "2012": 100
    },
    "M Klinger": {
        "2011": 94.8051948051948
    },
    "AC Blizzard": {
        "2011": 136.7816091954023,
        "2012": 0
    },
    "I Malhotra": {
        "2011": 200
    },
    "L Ablish": {
        "2011": 0
    },
    "CA Ingram": {
        "2011": 80
    },
    "P Parameswaran": {
        "2012": 0
    },
    "CJ Ferguson": {
        "2011": 87.27272727272727,
        "2012": 79.36507936507937
    },
    "AA Chavan": {
        "2011": 50,
        "2012": 137.5
    },
    "ND Doshi": {
        "2011": 0
    },
    "Y Gnaneswara Rao": {
        "2011": 105.88235294117648
    },
    "S Rana": {
        "2011": 120,
        "2014": 110.6060606060606
    },
    "BA Bhatt": {
        "2011": 0,
        "2012": 300
    },
    "RE Levi": {
        "2012": 113.69863013698631
    },
    "KK Cooper": {
        "2012": 168.42105263157893,
        "2013": 177.27272727272728,
        "2014": 139.28571428571428
    },
    "HV Patel": {
        "2012": 93.75,
        "2014": 185.71428571428572,
        "2015": 135.71428571428572
    },
    "DAJ Bracewell": {
        "2012": 150
    },
    "DJ Harris": {
        "2012": 104.90196078431373
    },
    "GB Hogg": {
        "2012": 100,
        "2015": 116.66666666666667
    },
    "RR Bhatkal": {
        "2012": 0
    },
    "CJ McKay": {
        "2012": 57.14285714285714
    },
    "N Saini": {
        "2012": 97.1830985915493
    },
    "Azhar Mahmood": {
        "2012": 128.47222222222223,
        "2013": 124.0506329113924,
        "2015": 75
    },
    "RJ Peterson": {
        "2012": 90.32258064516128
    },
    "KMDN Kulasekara": {
        "2012": 50
    },
    "A Ashish Reddy": {
        "2012": 120.6896551724138,
        "2013": 138.88888888888889,
        "2015": 158.69565217391303,
        "2016": 156.66666666666666
    },
    "V Pratap Singh": {},
    "BB Samantray": {
        "2012": 100,
        "2013": 107.89473684210526
    },
    "MJ Clarke": {
        "2012": 102.10526315789474
    },
    "Gurkeerat Singh": {
        "2012": 160.37735849056605,
        "2013": 110.20408163265304,
        "2015": 85.36585365853658,
        "2016": 129.8850574712644
    },
    "AP Majumdar": {
        "2012": 114.4736842105263
    },
    "PA Reddy": {
        "2012": 116.12903225806453,
        "2013": 87.5
    },
    "K Upadhyay": {
        "2012": 128.57142857142858,
        "2013": 100
    },
    "P Awana": {
        "2012": 100,
        "2013": 11.11111111111111
    },
    "AD Russell": {
        "2012": 157.69230769230768,
        "2013": 73.33333333333333,
        "2014": 25,
        "2015": 186.28571428571428,
        "2016": 150.4
    },
    "A Chandila": {
        "2013": 66.66666666666666
    },
    "Sunny Gupta": {},
    "MC Juneja": {
        "2013": 93.23308270676691
    },
    "GH Vihari": {
        "2013": 83.91608391608392,
        "2015": 108.33333333333333
    },
    "MDKJ Perera": {
        "2013": 116.66666666666667
    },
    "R Shukla": {
        "2013": 100,
        "2014": 85.71428571428571
    },
    "B Laughlin": {
        "2013": 50
    },
    "BMAJ Mendis": {
        "2013": 88.46153846153845
    },
    "R Rampaul": {
        "2013": 100,
        "2014": 100
    },
    "SMSM Senanayake": {
        "2013": 56.25
    },
    "BJ Rohrer": {
        "2013": 133.10344827586206
    },
    "KL Rahul": {
        "2013": 133.33333333333331,
        "2014": 100,
        "2015": 106.76691729323309,
        "2016": 143.32129963898916
    },
    "Q de Kock": {
        "2013": 40,
        "2014": 115.90909090909092,
        "2015": 156.4102564102564,
        "2016": 130.88235294117646
    },
    "R Dhawan": {
        "2013": 105,
        "2014": 109.33333333333333,
        "2015": 109.09090909090908,
        "2016": 233.33333333333334
    },
    "LJ Wright": {
        "2013": 164.51612903225808
    },
    "IC Pandey": {
        "2013": 0
    },
    "CM Gautam": {
        "2013": 122.22222222222223,
        "2014": 104.3103448275862,
        "2015": 80
    },
    "X Thalaivan Sargunam": {
        "2013": 62.5
    },
    "DJG Sammy": {
        "2013": 125.92592592592592,
        "2014": 111.34020618556701,
        "2015": 72.22222222222221
    },
    "KW Richardson": {
        "2013": 97.14285714285714,
        "2014": 50,
        "2016": 100
    },
    "UA Birla": {
        "2013": 42.857142857142854
    },
    "Parvez Rasool": {
        "2013": 62.5,
        "2015": 100,
        "2016": 111.11111111111111
    },
    "PV Tambe": {
        "2013": 60,
        "2014": 55.55555555555556,
        "2015": 60,
        "2016": 36.84210526315789
    },
    "NJ Maddinson": {
        "2014": 92.3076923076923,
        "2015": 57.14285714285714
    },
    "JDS Neesham": {
        "2014": 93.33333333333333
    },
    "MA Starc": {
        "2014": 100,
        "2015": 78.57142857142857
    },
    "BR Dunk": {
        "2014": 114.28571428571428
    },
    "RR Rossouw": {
        "2014": 97.5,
        "2015": 140
    },
    "Shivam Sharma": {
        "2014": 50
    },
    "VH Zol": {
        "2014": 115.99999999999999
    },
    "BE Hendricks": {
        "2015": 50
    },
    "S Gopal": {
        "2014": 111.11111111111111,
        "2015": 100,
        "2016": 12.5
    },
    "M de Lange": {
        "2014": 0
    },
    "JO Holder": {
        "2014": 145.45454545454547,
        "2016": 110.00000000000001
    },
    "Karanveer Singh": {
        "2015": 68.75
    },
    "SA Abbott": {
        "2015": 125
    },
    "J Suchith": {
        "2015": 150
    },
    "RG More": {
        "2015": 100
    },
    "D Wiese": {
        "2015": 137.07865168539325,
        "2016": 125
    },
    "SN Khan": {
        "2015": 156.33802816901408,
        "2016": 212.9032258064516
    },
    "DJ Muthuswami": {
        "2015": 0
    },
    "C Munro": {
        "2016": 96.66666666666667
    },
    "P Sahu": {
        "2016": 158.33333333333331
    },
    "KJ Abbott": {
        "2016": 157.14285714285714
    },
    "M Ashwin": {},
    "NS Naik": {
        "2016": 65.625
    },
    "PSP Handscomb": {
        "2016": 54.54545454545454
    },
    "J Yadav": {
        "2016": 54.54545454545454
    },
    "UT Khawaja": {
        "2016": 121.15384615384615
    },
    "F Behardien": {
        "2016": 83.33333333333334
    },
    "BB Sran": {
        "2016": 100
    },
    "S Kaushik": {},
    "ER Dwivedi": {
        "2016": 142.85714285714286
    }
}